%YAML 1.1
%TAG !u! tag:unity3d.com,2011:
--- !u!1045 &1
EditorBuildSettings:
  m_ObjectHideFlags: 0
  serializedVersion: 2
  m_Scenes:
  - enabled: 1
    path: Assets/AutoDeploy/Scenes/Initial.unity
    guid: 4dc4eee3ac2cd3a43bac0543bdc837ce
  m_configObjects:
    com.unity.addressableassets: {fileID: 11400000, guid: 5d4c33e0241423c4195d641502d06e50, type: 2}
